<?xml version="1.0"?>
<robot name="rb1_base" xmlns:xacro="http://wiki.ros.org/xacro">

  <xacro:macro name="rb1_base_v0" params="prefix publish_bf hq">

  <!-- Robot mechanical and motor parameters -->
  <xacro:property name="PI" value="3.1415926535897931"/>
  <xacro:property name="wheel_width" value="0.175" />

  <!-- BASE FOOTPRINT -->
  <xacro:if value="${publish_bf}">
    <link name="${prefix}base_footprint">
      <visual>
          <origin xyz="0 0 0" rpy="0 0 0" />
          <geometry>
             <box size="0.001 0.001 0.001" />
          </geometry>
      </visual>
    </link>

    <joint name="${prefix}base_footprint_joint" type="fixed">
       <origin xyz="0 0 ${wheel_radius - wheel_offset_z}" rpy="0 0 0" />
      <parent link="${prefix}base_footprint"/>
      <child link="${prefix}base_link" />
    </joint>
  </xacro:if>

  <!-- BASE_LINK -->
  <link name="${prefix}base_link">
    <inertial>
      <mass value="25.0" />
      <origin xyz="0 0 0" />
      <inertia  ixx="0.605" ixy="0.0"  ixz="0.0"  iyy="0.5435"  iyz="0.0"  izz="0.981" />
    </inertial>
    <visual>
       <origin xyz="0 0 0" rpy="0 0 0" />
       <xacro:if value="${hq}">
       <geometry>
         <mesh filename="package://rb1_base_description/meshes/bases/rb1v0_base.dae"/>
       </geometry>
       </xacro:if>
       <xacro:unless value="${hq}">
       <geometry>
       <mesh filename="package://rb1_base_description/meshes/bases/rb1v0_base.stl"/>
       </geometry>
       </xacro:unless>
       <material name="darkgrey">
         <color rgba="0.1 0.1 0.1 1"/>
       </material>
    </visual>
    <collision>
       <origin xyz="0 0 0" rpy="0 0 0 " />
       <geometry>
         <mesh filename="package://rb1_base_description/meshes/bases/rb1v0_base.dae"/>
       </geometry>
    </collision>
  </link>

  </xacro:macro>
</robot>
